Thuc hanh tin/EX4/simulation/qsim/ex4.msim.vcd
$comment
	File created using the following command:
		vcd file ex4.msim.vcd -direction
$end
$date
	Tue Jan 10 12:51:27 2023
$end
$version
	ModelSim Version 10.1d
$end
$timescale
	1ps
$end
$scope module cau2_vlg_vec_tst $end
$var reg 4 ! a [3:0] $end
$var reg 4 " b [3:0] $end
$var reg 4 # c [3:0] $end
$var wire 1 $ F [3] $end
$var wire 1 % F [2] $end
$var wire 1 & F [1] $end
$var wire 1 ' F [0] $end
$var wire 1 ( sampler $end
$scope module i1 $end
$var wire 1 ) gnd $end
$var wire 1 * vcc $end
$var wire 1 + unknown $end
$var tri1 1 , devclrn $end
$var tri1 1 - devpor $end
$var tri1 1 . devoe $end
$var wire 1 / inst7~1_combout $end
$var wire 1 0 inst5|inst|inst2~0_combout $end
$var wire 1 1 inst2~0_combout $end
$var wire 1 2 inst2~1_combout $end
$var wire 1 3 inst2~2_combout $end
$var wire 1 4 inst1|inst1|inst2~0_combout $end
$var wire 1 5 inst7~2_combout $end
$var wire 1 6 inst1|inst2|inst2~0_combout $end
$var wire 1 7 inst7~3_combout $end
$var wire 1 8 inst7~0_combout $end
$var wire 1 9 inst7~4_combout $end
$var wire 1 : inst5|inst1|inst2~0_combout $end
$var wire 1 ; inst5|inst2|inst2~0_combout $end
$var wire 1 < inst1|inst3|inst2~0_combout $end
$var wire 1 = inst5|inst3|inst2~0_combout $end
$var wire 1 > c~combout [3] $end
$var wire 1 ? c~combout [2] $end
$var wire 1 @ c~combout [1] $end
$var wire 1 A c~combout [0] $end
$var wire 1 B a~combout [3] $end
$var wire 1 C a~combout [2] $end
$var wire 1 D a~combout [1] $end
$var wire 1 E a~combout [0] $end
$var wire 1 F b~combout [3] $end
$var wire 1 G b~combout [2] $end
$var wire 1 H b~combout [1] $end
$var wire 1 I b~combout [0] $end
$upscope $end
$upscope $end
$enddefinitions $end
#0
$dumpvars
b0 !
b1 "
b10 #
0'
1&
0%
0$
x(
0)
1*
x+
1,
1-
1.
1/
00
11
12
13
04
05
06
17
18
09
0:
1;
1<
0=
0A
1@
0?
0>
0E
0D
0C
0B
1I
0H
0G
0F
$end
#1000
b1 !
b11 "
b10 "
b11 #
1A
0I
1H
1E
0(
1=
15
0<
16
1'
#2000
b11 !
b1 #
b10 !
b11 "
b0 #
1I
0A
0@
0E
1D
1(
1<
05
0=
0;
07
1=
1;
0'
0&
1'
1&
#3000
b1 "
b11 !
b0 "
b1 #
1A
1E
0I
0H
0(
15
0<
01
06
17
0=
02
0;
1=
03
0'
0&
1<
16
1'
07
1;
1&
#4000
b1 !
b11 #
b10 "
b0 !
1H
1@
0E
0D
1(
06
11
17
0<
12
13
16
#5000
b11 "
b10 #
b0 #
b1 !
1E
0A
0@
1I
0(
1<
05
0=
0;
07
1=
1;
0'
0&
1'
1&
#6000
b11 !
b1 "
b0 "
b1 #
b10 !
1A
0I
0H
0E
1D
1(
15
0<
01
06
17
0=
02
0;
1=
03
0'
0&
16
1'
07
0=
1;
0'
1&
#7000
b11 #
b1 "
b10 #
b11 !
1E
1I
0A
1@
0(
1<
05
17
07
1=
1'
#8000
b1 !
b11 #
b0 !
1A
0E
0D
1(
15
0<
11
06
17
0=
12
0;
1=
1;
13
0'
0&
1<
1'
1&
#9000
b11 "
b1 #
b10 "
b0 #
b1 !
1E
0A
0@
0I
1H
0(
0<
0=
0;
16
07
0'
0&
1;
1&
#10000
b11 !
b11 "
b1 #
b10 !
1A
1I
0E
1D
1(
1<
1=
1'
#11000
b1 "
b0 "
b11 !
1E
0I
0H
0(
0<
01
06
0=
02
0;
17
03
1=
0'
0&
1<
16
1'
07
1;
1&
